{
    "$schema": "http://json-schema.org/draft-07/schema#",
    "$id": "CRT Think Team",
    "definitions": {
        "mongoDate": {
            "type": "object",
            "additionalProperties": true,
            "properties": {
                "placeHolder": {
                    "type": "string"
                }
            }
        },
        "multiLingualText": {
            "type": "array",
            "items": {
                "type": "object",
                "additionalProperties": false,
                "properties": {
                    "value": {
                        "type": "string"
                    },
                    "lang": {
                        "type": "string",
                        "enum": [
                            "en",
                            "zh"
                        ]
                    }
                }
            }
        },
        "source": {
            "type": "array",
            "items": {
                "type": "object",
                "additionalProperties": false,
                "properties": {
                    "name": {
                        "type": "string",
                        "enum": [
                            "Facebook",
                            "Twitter",
                            "Instagram",
                            "Pinterest",
                            "unknown"
                        ]
                    },
                    "url": {
                        "type": "string"
                    },
                    "md5": {
                        "type": "string"
                    }
                }
            }
        },
        "sourcedProperty": {
            "type": "object",
            "additionalProperties": false,
            "required": [
                "value"
            ],
            "properties": {
                "value": {
                    "type": "string"
                },
                "description": {
                    "$ref": "#/definitions/multiLingualText"
                },
                "dateInfoDerived": {
                    "$ref": "#/definitions/mongoDate"
                },
                "source": {
                    "$ref": "#/definitions/source"
                }
            }
        },
        "sourcedArrayOfProperties": {
            "type": "object",
            "additionalProperties": false,
            "required": [
                "value"
            ],
            "properties": {
                "value": {
                    "type": "array",
                    "items": {
                        "type": "string"
                    }
                },
                "description": {
                    "$ref": "#/definitions/multiLingualText"
                },
                "dateInfoDerived": {
                    "$ref": "#/definitions/mongoDate"
                },
                "source": {
                    "$ref": "#/definitions/source"
                }
            }
        },
        "sourcedArrayOfPropertiesWebsite": {
            "type": "object",
            "additionalProperties": false,
            "required": [
                "value"
            ],
            "properties": {
                "value": {
                    "type": "array",
                    "items": {
                        "type": "object",
                        "additionalProperties": false,
                        "properties": {
                            "url": {
                                "type": "string"
                            },
                            "status": {
                                "type": "string",
                                "enum": [
                                    "Working",
                                    "Not Working",
                                    "Unknown"
                                ]
                            }
                        }
                    }
                },
                "description": {
                    "$ref": "#/definitions/multiLingualText"
                },
                "dateInfoDerived": {
                    "$ref": "#/definitions/mongoDate"
                },
                "source": {
                    "$ref": "#/definitions/source"
                }
            }
        },
        "sourcedMultiLingualProperty": {
            "type": "object",
            "additionalProperties": false,
            "required": [
                "value"
            ],
            "properties": {
                "value": {
                    "$ref": "#/definitions/multiLingualText"
                },
                "description": {
                    "$ref": "#/definitions/multiLingualText"
                },
                "dateInfoDerived": {
                    "$ref": "#/definitions/mongoDate"
                },
                "source": {
                    "$ref": "#/definitions/source"
                }
            }
        },
        "sourcedPropertyDateOf": {
            "type": "object",
            "additionalProperties": false,
            "required": [
                "value"
            ],
            "properties": {
                "value": {
                    "type": "object",
                    "additionalProperties": false,
                    "properties": {
                        "value": {
                            "$ref": "#/definitions/mongoDate"
                        },
                        "year": {
                            "type": "integer"
                        },
                        "month": {
                            "type": "integer"
                        },
                        "day": {
                            "type": "integer"
                        }
                    }
                },
                "description": {
                    "$ref": "#/definitions/multiLingualText"
                },
                "source": {
                    "$ref": "#/definitions/source"
                }
            }
        },
        "sourcedPropertyArray": {
            "type": "array",
            "items": {
                "$ref": "#/definitions/sourcedProperty"
            }
        },
        "license": {
            "type": "object",
            "additionalProperties": false,
            "properties": {
                "value": {
                    "type": "string"
                },
                "dateOfRegistration": {
                    "$ref": "#/definitions/mongoDate"
                },
                "validUntil": {
                    "$ref": "#/definitions/mongoDate"
                },
                "issuingAuthority": {
                    "type": "string"
                },
                "dateInfoDerived": {
                    "$ref": "#/definitions/mongoDate"
                },
                "source": {
                    "$ref": "#/definitions/source"
                }
            }
        },
        "namedLicense": {
            "type": "object",
            "additionalProperties": false,
            "properties": {
                "name": {
                    "type": "string"
                },
                "number": {
                    "type": "string"
                },
                "dateOfRegistration": {
                    "$ref": "#/definitions/mongoDate"
                },
                "validUntil": {
                    "$ref": "#/definitions/mongoDate"
                },
                "issuingAuthority": {
                    "type": "string"
                },
                "source": {
                    "$ref": "#/definitions/source"
                },
                "dateInfoDerived": {
                    "$ref": "#/definitions/mongoDate"
                }
            }
        },
        "percentage": {
            "type": "number",
            "minimum": 0,
            "maximum": 100
        },
        "score": {
            "type": "number",
            "minimum": 0,
            "maximum": 10
        },
        "mediaPrecence": {
            "type": "string",
            "enum": [
                "Low",
                "Moderate",
                "High"
            ]
        },
        "sectionOverview": {
            "type": "object",
            "additionalProperties": false,
            "properties": {
                "value": {
                    "$ref": "#/definitions/score"
                },
                "summary": {
                    "$ref": "#/definitions/multiLingualText"
                },
                "details": {
                    "$ref": "#/definitions/multiLingualText"
                }
            }
        }
    },
    "type": "object",
    "required": [
        "id",
        "type",
        "fullName",
        "countries",
        "meta"
    ],
    "additionalProperties": false,
    "properties": {
        "_id": {
            "type": "string",
            "uniqueItems": true
        },
        "profileId": {
            "type": "string",
            "uniqueItems": true
        },
        "fullName": {
            "type": "string"
        },
        "countries": {
            "type": "array",
            "items": {
                "type": "string"
            }
        },
        "meta": {
            "type": "object",
            "additionalProperties": false,
            "properties": {
                "source": {
                    "type": "object",
                    "additionalProperties": false,
                    "properties": {
                        "sections": {
                            "type": "object",
                            "additionalProperties": true,
                            "properties": {
                                "placeHolder": {
                                    "type": "string"
                                }
                            }
                        },
                        "category": {
                            "type": "string"
                        },
                        "dateCreated": {
                            "$ref": "#/definitions/mongoDate"
                        },
                        "dateModified": {
                            "$ref": "#/definitions/mongoDate"
                        },
                        "createdBy": {
                            "type": "string",
                            "description": "refers to the user who created the source"
                        },
                        "modifiedBy": {
                            "type": "string",
                            "description": "refers to the user who made the last modification in the document"
                        },
                        "version": {
                            "type": "string",
                            "description": "version of the source, if applicable"
                        },
                        "filePath": {
                            "type": "string",
                            "description": ""
                        },
                        "testPath": {
                            "type": "string",
                            "description": ""
                        },
                        "importPlanType": {
                            "type": "string",
                            "description": ""
                        },
                        "importPlanVersion": {
                            "type": "string"
                        },
                        "client": {
                            "type": "string",
                            "description": ""
                        },
                        "publicationDate": {
                            "$ref": "#/definitions/mongoDate"
                        },
                        "case": {
                            "type": "string",
                            "description": ""
                        }
                    }
                },
                "comments": {
                    "type": "array",
                    "items": {
                        "type": "object",
                        "additionalProperties": false,
                        "properties": {
                            "commentId": {
                                "type": "integer"
                            }
                        }
                    }
                },
                "url": {
                    "type": "array",
                    "items": {
                        "type": "object",
                        "additionalProperties": false,
                        "properties": {
                            "link": {
                                "type": "string"
                            },
                            "status": {
                                "type": "string",
                                "enum": [
                                    "Working",
                                    "Not Working",
                                    "Unknown"
                                ]
                            },
                            "dateLastVerified": {
                                "$ref": "#/definitions/mongoDate"
                            }
                        }
                    }
                }
            }
        }
    }
}