[
  {
    "_id": {
      "$oid": "5e33b98782fa8957a17ffc8a"
    },
    "areaName": "Cagayan de Oro",
    "psrName": "x"
  },
  {
    "_id": {
      "$oid": "5e33b98782fa8957a17ffc8b"
    },
    "areaName": "Iligan",
    "psrName": ""
  },
  {
    "_id": {
      "$oid": "5e33b98782fa8957a17ffc8c"
    },
    "areaName": "Bukidnon",
    "psrName": "x"
  },
  {
    "_id": {
      "$oid": "5e344edf2793e27c701bdeb2"
    },
    "areaName": "Butuan",
    "psrName": "x"
  },
  {
    "_id": {
      "$oid": "5e344f0d9cff2763396109f2"
    },
    "areaName": "Balingoan",
    "psrName": "zxcqwe"
  }
]