[{
  "_id": {
    "$oid": "5e3c4cc2e127c0caf5908522"
  },
  "value": "Email",
  "set": "infotype"
},
  {
    "_id": {
      "$oid": "5e3c4cc2e127c0caf5908523"
    },
    "value": "Address",
    "set": "infotype"
  },
  {
    "_id": {
      "$oid": "5e3c4cc2e127c0caf5908524"
    },
    "value": "Home Phone",
    "set": "infotype"
  },
  {
    "_id": {
      "$oid": "5e3c4cc2e127c0caf5908525"
    },
    "value": "Work Phone",
    "set": "infotype"
  },
  {
    "_id": {
      "$oid": "5e3c4cc2e127c0caf5908526"
    },
    "value": "Mobile Phone",
    "set": "infotype"
  },
  {
    "_id": {
      "$oid": "5e3c4cc2e127c0caf5908527"
    },
    "value": "Social: Twitter",
    "set": "infotype"
  },
  {
    "_id": {
      "$oid": "5e3c4cc2e127c0caf5908528"
    },
    "value": "Other Phone",
    "set": "infotype"
  },
  {
    "_id": {
      "$oid": "5e3c4cc2e127c0caf5908529"
    },
    "value": "Social: Facebook",
    "set": "infotype"
  },
  {
    "_id": {
      "$oid": "5e3c4cc2e127c0caf590852a"
    },
    "value": "Social: LinkedIn",
    "set": "infotype"
  },
  {
    "_id": {
      "$oid": "5e3c4cc2e127c0caf590852b"
    },
    "value": "IM: Skype",
    "set": "infotype"
  },
  {
    "_id": {
      "$oid": "5e3c4cc2e127c0caf590852c"
    },
    "value": "IM: Google Talk",
    "set": "infotype"
  },
  {
    "_id": {
      "$oid": "5e3c4cc2e127c0caf590852d"
    },
    "value": "IM: Facebook Messenger",
    "set": "infotype"
  },
  {
    "_id": {
      "$oid": "5e3c4cc2e127c0caf590852e"
    },
    "value": "Other",
    "set": "infotype"
  },
  {
    "_id": {
      "$oid": "5e50bfa2db99a4af089138c0"
    },
    "value": "Axodime",
    "set": "products"
  },
  {
    "_id": {
      "$oid": "5e50bfa2db99a4af089138c1"
    },
    "value": "Brodpen",
    "set": "products"
  },
  {
    "_id": {
      "$oid": "5e50bfa2db99a4af089138c2"
    },
    "value": "Doripenem",
    "set": "products"
  },
  {
    "_id": {
      "$oid": "5e50bfa2db99a4af089138c3"
    },
    "value": "Piptadime",
    "set": "products"
  },
  {
    "_id": {
      "$oid": "5e50bfa2db99a4af089138c4"
    },
    "value": "Sinaizole",
    "set": "products"
  },
  {
    "_id": {
      "$oid": "5e50bfa2db99a4af089138c5"
    },
    "value": "Stafipime",
    "set": "products"
  },
  {
    "_id": {
      "$oid": "5e50bfa2db99a4af089138c6"
    },
    "value": "Amsudime",
    "set": "products"
  },
  {
    "_id": {
      "$oid": "5e513ec93e079bd255503be7"
    },
    "value": "Dermatology",
    "set": "specialties"
  },
  {
    "_id": {
      "$oid": "5e513ec93e079bd255503be8"
    },
    "value": "Surgery",
    "set": "specialties"
  },
  {
    "_id": {
      "$oid": "5e513ec93e079bd255503be9"
    },
    "value": "OB Gynecology",
    "set": "specialties"
  },
  {
    "_id": {
      "$oid": "5e513ec93e079bd255503bea"
    },
    "value": "Pediatrics",
    "set": "specialties"
  },
  {
    "_id": {
      "$oid": "5e513ec93e079bd255503beb"
    },
    "value": "Family Medicine / General Practitioner",
    "set": "specialties"
  },
  {
    "_id": {
      "$oid": "5e513ec93e079bd255503bec"
    },
    "value": "Internal Medicine",
    "set": "specialties"
  },
  {
    "_id": {
      "$oid": "5e516cd04f8a1f9b8aa9b9b3"
    },
    "value": "Cardiologist",
    "set": "subspecialties"
  },
  {
    "_id": {
      "$oid": "5e516cd04f8a1f9b8aa9b9b4"
    },
    "value": "Pulmonologist",
    "set": "subspecialties"
  },
  {
    "_id": {
      "$oid": "5e5903e8311d8d34364a6502"
    },
    "value": "A",
    "set": "potential"
  },
  {
    "_id": {
      "$oid": "5e5903e8311d8d34364a6503"
    },
    "value": "B",
    "set": "potential"
  },
  {
    "_id": {
      "$oid": "5e5903e8311d8d34364a6504"
    },
    "value": "C",
    "set": "potential"
  }]